waveform/single/bgeu.vcd
$version Generated by VerilatedVcd $end
$timescale 1ps $end
 $scope module TOP $end
  $var wire 1 +" fpga_clk $end
  $var wire 1 ," fpga_rst $end
  $var wire 16 -" sw [15:0] $end
  $var wire 16 @" led [15:0] $end
  $var wire 8 A" dig_en [7:0] $end
  $var wire 8 B" dig_seg [7:0] $end
  $var wire 8 C" dig_seg1 [7:0] $end
  $var wire 1 ." rx $end
  $var wire 1 D" tx $end
  $scope module miniRV_SoC $end
   $var wire 1 +" fpga_clk $end
   $var wire 1 ," fpga_rst $end
   $var wire 16 -" sw [15:0] $end
   $var wire 16 @" led [15:0] $end
   $var wire 8 A" dig_en [7:0] $end
   $var wire 8 B" dig_seg [7:0] $end
   $var wire 8 C" dig_seg1 [7:0] $end
   $var wire 1 ." rx $end
   $var wire 1 D" tx $end
   $var wire 1 +" sys_clk $end
   $var wire 1 ," sys_rst $end
   $scope module U_cpu $end
    $var wire 1 +" cpu_clk $end
    $var wire 1 ," cpu_rst $end
    $var wire 1 /" cpu2ic_rreq $end
    $var wire 32 0" cpu2ic_addr [31:0] $end
    $var wire 1 #! ic2cpu_valid $end
    $var wire 32 1" ic2cpu_inst [31:0] $end
    $var wire 4 $! cpu2dc_ren [3:0] $end
    $var wire 32 '" cpu2dc_addr [31:0] $end
    $var wire 1 %! dc2cpu_valid $end
    $var wire 32 ^! dc2cpu_rdata [31:0] $end
    $var wire 4 (" cpu2dc_wen [3:0] $end
    $var wire 32 )" cpu2dc_wdata [31:0] $end
    $var wire 1 &! dc2cpu_wresp $end
    $scope module U_core $end
     $var wire 1 ," cpu_rst $end
     $var wire 1 +" cpu_clk $end
     $var wire 1 /" ifetch_req $end
     $var wire 32 0" ifetch_addr [31:0] $end
     $var wire 1 2" ifetch_valid $end
     $var wire 32 1" ifetch_inst [31:0] $end
     $var wire 4 $! daccess_ren [3:0] $end
     $var wire 32 '" daccess_addr [31:0] $end
     $var wire 1 %! daccess_rvalid $end
     $var wire 32 ^! daccess_rdata [31:0] $end
     $var wire 4 (" daccess_wen [3:0] $end
     $var wire 32 )" daccess_wdata [31:0] $end
     $var wire 1 &! daccess_wresp $end
     $var wire 32 '! pc [31:0] $end
     $var wire 32 3" npc [31:0] $end
     $var wire 32 (! pc4 [31:0] $end
     $var wire 32 ( inst [31:0] $end
     $var wire 2 ) npc_op [1:0] $end
     $var wire 2 * rf_wsel [1:0] $end
     $var wire 3 + sext_op [2:0] $end
     $var wire 5 , alu_op [4:0] $end
     $var wire 1 - alua_sel $end
     $var wire 1 . alub_sel $end
     $var wire 3 / ram_rop [2:0] $end
     $var wire 3 _! ram_rop_r [2:0] $end
     $var wire 4 0 ram_wop [3:0] $end
     $var wire 1 1 is_mul $end
     $var wire 1 2 is_div $end
     $var wire 1 3 is_mul_div $end
     $var wire 1 )! mul_div_flag $end
     $var wire 32 4" rf_rd1 [31:0] $end
     $var wire 32 4 rf_rd2 [31:0] $end
     $var wire 32 F" rf_rd3 [31:0] $end
     $var wire 1 5 rf_we $end
     $var wire 1 6 rf_we1 $end
     $var wire 5 `! rf_wR_r [4:0] $end
     $var wire 5 7 rf_wR [4:0] $end
     $var wire 32 8 rf_wD [31:0] $end
     $var wire 32 9 ext [31:0] $end
     $var wire 32 : alu_a [31:0] $end
     $var wire 32 ; alu_b [31:0] $end
     $var wire 32 < alu_c [31:0] $end
     $var wire 32 a! alu_c_r [31:0] $end
     $var wire 1 = br $end
     $var wire 1 *! mul_div_busy $end
     $var wire 4 > da_ren [3:0] $end
     $var wire 32 < da_addr [31:0] $end
     $var wire 4 ? da_wen [3:0] $end
     $var wire 32 @ da_wdata [31:0] $end
     $var wire 32 b! ram_ext [31:0] $end
     $var wire 1 A is_ld_st $end
     $var wire 1 +! ld_st_flag $end
     $var wire 1 ,! ld_st_done $end
     $var wire 1 B inst_finished $end
     $var wire 1 -! inst_finished_r $end
     $var wire 1 c! rst_r $end
     $var wire 1 5" first_req $end
     $var wire 32 6" debug_wb_pc [31:0] $end
     $var wire 1 7" debug_wb_rf_we $end
     $var wire 5 8" debug_wb_rf_wR [4:0] $end
     $var wire 32 9" debug_wb_rf_wD [31:0] $end
     $var wire 32 :" debug_mem_pc [31:0] $end
     $var wire 4 ;" debug_mem_we [3:0] $end
     $var wire 32 <" debug_mem_waddr [31:0] $end
     $var wire 32 =" debug_mem_wdata [31:0] $end
     $scope module U_ALU $end
      $var wire 1 ," rst $end
      $var wire 1 +" clk $end
      $var wire 5 , op [4:0] $end
      $var wire 32 : a [31:0] $end
      $var wire 32 ; b [31:0] $end
      $var wire 32 < c [31:0] $end
      $var wire 1 = br $end
      $var wire 1 *! busy $end
      $var wire 1 C mul_flag $end
      $var wire 1 D mulu_flag $end
      $var wire 64 .! mul_res [63:0] $end
      $var wire 64 0! mulu_res [63:0] $end
      $var wire 1 2! mul_busy $end
      $var wire 1 3! mulu_busy $end
      $var wire 1 E div_flag $end
      $var wire 1 F divu_flag $end
      $var wire 32 4! div_quo [31:0] $end
      $var wire 32 5! divu_quo [31:0] $end
      $var wire 32 6! div_rem [31:0] $end
      $var wire 32 7! divu_rem [31:0] $end
      $var wire 1 8! div_busy $end
      $var wire 1 9! divu_busy $end
      $var wire 5 :! op_r [4:0] $end
      $var wire 1 ;! busy_d $end
      $var wire 1 <! sign_ab_r $end
      $var wire 1 =! a_sign_r $end
      $var wire 32 >! b_r [31:0] $end
      $var wire 32 ?! a_r [31:0] $end
      $var wire 32 G a_abs [31:0] $end
      $var wire 32 H b_abs [31:0] $end
      $var wire 1 I sign_ab $end
      $var wire 64 @! mul_res_signed [63:0] $end
      $scope module U_div $end
       $var wire 32 G" WIDTH [31:0] $end
       $var wire 1 +" clk $end
       $var wire 1 ," rst $end
       $var wire 32 G x [31:0] $end
       $var wire 32 H y [31:0] $end
       $var wire 1 E start $end
       $var wire 32 4! z [31:0] $end
       $var wire 32 6! r [31:0] $end
       $var wire 1 8! busy $end
       $var wire 2 H" IDLE [1:0] $end
       $var wire 2 I" CALC [1:0] $end
       $var wire 2 J" DONE [1:0] $end
       $var wire 2 B! state [1:0] $end
       $var wire 32 C! R [31:0] $end
       $var wire 32 D! Q [31:0] $end
       $var wire 32 E! divisor [31:0] $end
       $var wire 32 F! dividend [31:0] $end
       $var wire 6 G! cnt [5:0] $end
       $var wire 32 H! R_shifted [31:0] $end
      $upscope $end
      $scope module U_divu $end
       $var wire 32 G" WIDTH [31:0] $end
       $var wire 1 +" clk $end
       $var wire 1 ," rst $end
       $var wire 32 : x [31:0] $end
       $var wire 32 ; y [31:0] $end
       $var wire 1 F start $end
       $var wire 32 5! z [31:0] $end
       $var wire 32 7! r [31:0] $end
       $var wire 1 9! busy $end
       $var wire 2 H" IDLE [1:0] $end
       $var wire 2 I" CALC [1:0] $end
       $var wire 2 J" DONE [1:0] $end
       $var wire 2 I! state [1:0] $end
       $var wire 32 J! R [31:0] $end
       $var wire 32 K! Q [31:0] $end
       $var wire 32 L! divisor [31:0] $end
       $var wire 32 M! dividend [31:0] $end
       $var wire 6 N! cnt [5:0] $end
       $var wire 32 O! R_shifted [31:0] $end
      $upscope $end
      $scope module U_mul $end
       $var wire 32 G" WIDTH [31:0] $end
       $var wire 1 +" clk $end
       $var wire 1 ," rst $end
       $var wire 32 G x [31:0] $end
       $var wire 32 H y [31:0] $end
       $var wire 1 C start $end
       $var wire 64 .! z [63:0] $end
       $var wire 1 2! busy $end
       $var wire 2 H" IDLE [1:0] $end
       $var wire 2 I" CALC [1:0] $end
       $var wire 2 J" DONE [1:0] $end
       $var wire 2 P! state [1:0] $end
       $var wire 64 Q! multiplicand [63:0] $end
       $var wire 32 S! multiplier [31:0] $end
       $var wire 64 T! product [63:0] $end
       $var wire 6 V! cnt [5:0] $end
      $upscope $end
      $scope module U_mulu $end
       $var wire 32 G" WIDTH [31:0] $end
       $var wire 1 +" clk $end
       $var wire 1 ," rst $end
       $var wire 32 : x [31:0] $end
       $var wire 32 ; y [31:0] $end
       $var wire 1 D start $end
       $var wire 64 0! z [63:0] $end
       $var wire 1 3! busy $end
       $var wire 2 H" IDLE [1:0] $end
       $var wire 2 I" CALC [1:0] $end
       $var wire 2 J" DONE [1:0] $end
       $var wire 2 W! state [1:0] $end
       $var wire 64 X! multiplicand [63:0] $end
       $var wire 32 Z! multiplier [31:0] $end
       $var wire 64 [! product [63:0] $end
       $var wire 6 ]! cnt [5:0] $end
      $upscope $end
     $upscope $end
     $scope module U_CU $end
      $var wire 7 J opcode [6:0] $end
      $var wire 3 K funct3 [2:0] $end
      $var wire 7 L funct7 [6:0] $end
      $var wire 2 ) npc_op [1:0] $end
      $var wire 3 + sext_op [2:0] $end
      $var wire 1 - alua_sel $end
      $var wire 1 . alub_sel $end
      $var wire 5 , alu_op [4:0] $end
      $var wire 1 1 is_mul $end
      $var wire 1 2 is_div $end
      $var wire 3 / ram_r_op [2:0] $end
      $var wire 4 0 ram_w_op [3:0] $end
      $var wire 1 5 rf_we $end
      $var wire 2 * rf_wsel [1:0] $end
      $var wire 1 M ADDI $end
      $var wire 1 N ORI $end
      $var wire 1 O SLLI $end
      $var wire 1 P LW $end
      $var wire 1 Q BEQ $end
      $var wire 1 R BNE $end
      $var wire 1 S LUI $end
      $var wire 1 T JAL $end
      $var wire 1 U ADD_R $end
      $var wire 1 V SUB $end
      $var wire 1 - AUIPC $end
      $var wire 1 W XOR_R $end
      $var wire 1 X XORI $end
      $var wire 1 Y SLL_R $end
      $var wire 1 Z SRL_R $end
      $var wire 1 [ SRLI $end
      $var wire 1 \ SRA_R $end
      $var wire 1 ] SRAI $end
      $var wire 1 ^ LB $end
      $var wire 1 _ LBU $end
      $var wire 1 ` LH $end
      $var wire 1 a LHU $end
      $var wire 1 b SW $end
      $var wire 1 c SB $end
      $var wire 1 d SH $end
      $var wire 1 e JALR $end
      $var wire 1 f AND_R $end
      $var wire 1 g OR_R $end
      $var wire 1 h SLT $end
      $var wire 1 i SLTU $end
      $var wire 1 j SLTI $end
      $var wire 1 k SLTIU $end
      $var wire 1 l ANDI $end
      $var wire 1 m BLT $end
      $var wire 1 n BGE $end
      $var wire 1 o BLTU $end
      $var wire 1 p BGEU $end
      $var wire 1 q MUL $end
      $var wire 1 r MULH $end
      $var wire 1 s MULHU $end
      $var wire 1 t DIV $end
      $var wire 1 u DIVU $end
      $var wire 1 v REM $end
      $var wire 1 w REMU $end
      $var wire 1 x load_inst $end
      $var wire 1 y store_inst $end
      $var wire 1 z branch_inst $end
      $var wire 1 { reg_alu_inst $end
      $var wire 1 | imm_alu_inst $end
      $var wire 1 3 mul_div_inst $end
     $upscope $end
     $scope module U_MEM_EXT $end
      $var wire 3 _! op [2:0] $end
      $var wire 32 ^! din [31:0] $end
      $var wire 2 d! byte_offs [1:0] $end
      $var wire 32 b! ext [31:0] $end
      $var wire 32 e! real_din [31:0] $end
     $upscope $end
     $scope module U_MEM_REQ $end
      $var wire 32 < ram_addr [31:0] $end
      $var wire 3 / ram_rop [2:0] $end
      $var wire 4 > da_ren [3:0] $end
      $var wire 32 < da_addr [31:0] $end
      $var wire 4 0 ram_wop [3:0] $end
      $var wire 32 4 ram_wdata [31:0] $end
      $var wire 4 ? da_wen [3:0] $end
      $var wire 32 @ da_wdata [31:0] $end
      $var wire 2 } offset [1:0] $end
     $upscope $end
     $scope module U_NPC $end
      $var wire 2 ) op [1:0] $end
      $var wire 32 '! pc [31:0] $end
      $var wire 32 9 offset [31:0] $end
      $var wire 32 < jalr_addr [31:0] $end
      $var wire 1 = br $end
      $var wire 32 3" npc [31:0] $end
      $var wire 32 (! pc4 [31:0] $end
     $upscope $end
     $scope module U_PC $end
      $var wire 1 +" clk $end
      $var wire 1 ," rst $end
      $var wire 32 3" npc [31:0] $end
      $var wire 1 B fetch $end
      $var wire 32 '! pc [31:0] $end
     $upscope $end
     $scope module U_RF $end
      $var wire 1 +" clk $end
      $var wire 5 ~ rR1 [4:0] $end
      $var wire 5 !! rR2 [4:0] $end
      $var wire 1 6 we $end
      $var wire 5 7 wR [4:0] $end
      $var wire 32 8 wD [31:0] $end
      $var wire 32 4" rD1 [31:0] $end
      $var wire 32 4 rD2 [31:0] $end
      $var wire 32 f! regs[1] [31:0] $end
      $var wire 32 g! regs[2] [31:0] $end
      $var wire 32 h! regs[3] [31:0] $end
      $var wire 32 i! regs[4] [31:0] $end
      $var wire 32 j! regs[5] [31:0] $end
      $var wire 32 k! regs[6] [31:0] $end
      $var wire 32 l! regs[7] [31:0] $end
      $var wire 32 m! regs[8] [31:0] $end
      $var wire 32 n! regs[9] [31:0] $end
      $var wire 32 o! regs[10] [31:0] $end
      $var wire 32 p! regs[11] [31:0] $end
      $var wire 32 q! regs[12] [31:0] $end
      $var wire 32 r! regs[13] [31:0] $end
      $var wire 32 s! regs[14] [31:0] $end
      $var wire 32 t! regs[15] [31:0] $end
      $var wire 32 u! regs[16] [31:0] $end
      $var wire 32 v! regs[17] [31:0] $end
      $var wire 32 w! regs[18] [31:0] $end
      $var wire 32 x! regs[19] [31:0] $end
      $var wire 32 y! regs[20] [31:0] $end
      $var wire 32 z! regs[21] [31:0] $end
      $var wire 32 {! regs[22] [31:0] $end
      $var wire 32 |! regs[23] [31:0] $end
      $var wire 32 }! regs[24] [31:0] $end
      $var wire 32 ~! regs[25] [31:0] $end
      $var wire 32 !" regs[26] [31:0] $end
      $var wire 32 "" regs[27] [31:0] $end
      $var wire 32 #" regs[28] [31:0] $end
      $var wire 32 $" regs[29] [31:0] $end
      $var wire 32 %" regs[30] [31:0] $end
      $var wire 32 &" regs[31] [31:0] $end
     $upscope $end
     $scope module U_SEXT $end
      $var wire 3 + op [2:0] $end
      $var wire 25 "! imm [31:7] $end
      $var wire 32 9 ext [31:0] $end
     $upscope $end
    $upscope $end
    $scope module U_dram $end
     $var wire 1 +" cpu_clk $end
     $var wire 1 ," cpu_rst $end
     $var wire 4 $! data_ren [3:0] $end
     $var wire 32 '" data_addr [31:0] $end
     $var wire 1 %! data_valid $end
     $var wire 32 ^! data_rdata [31:0] $end
     $var wire 4 (" data_wen [3:0] $end
     $var wire 32 )" data_wdata [31:0] $end
     $var wire 1 &! data_wresp $end
     $scope module U_dram $end
      $var wire 32 E" ADDR_BITS [31:0] $end
      $var wire 1 +" clka $end
      $var wire 16 *" addra [15:0] $end
      $var wire 4 (" wea [3:0] $end
      $var wire 32 )" dina [31:0] $end
      $var wire 32 ^! douta [31:0] $end
      $var wire 32 " i [31:0] $end
      $var wire 32 # j [31:0] $end
      $var wire 32 $ mem_file [31:0] $end
     $upscope $end
    $upscope $end
    $scope module U_irom $end
     $var wire 1 +" cpu_clk $end
     $var wire 1 ," cpu_rst $end
     $var wire 1 /" inst_rreq $end
     $var wire 32 0" inst_addr [31:0] $end
     $var wire 1 #! inst_valid $end
     $var wire 32 1" inst_out [31:0] $end
     $scope module U_irom $end
      $var wire 32 E" ADDR_BITS [31:0] $end
      $var wire 1 >" clka $end
      $var wire 16 ?" addra [15:0] $end
      $var wire 32 1" douta [31:0] $end
      $var wire 32 % i [31:0] $end
      $var wire 32 & j [31:0] $end
      $var wire 32 ' mem_file [31:0] $end
     $upscope $end
    $upscope $end
   $upscope $end
  $upscope $end
 $upscope $end
$enddefinitions $end


#9
b00000000000000010000000000000000 "
b00000000000000010000000000000000 #
b10000000000000000000000000101100 $
b00000000000000010000000000000000 %
b00000000000000010000000000000000 &
b10000000000000000000000000101011 '
b00000000000000000000000000010011 (
b00 )
b00 *
b000 +
b00000 ,
0-
1.
b000 /
b0000 0
01
02
03
b00000000000000000000000000000000 4
15
06
b00000 7
b00000000000000000000000000000000 8
b00000000000000000000000000000000 9
b00000000000000000000000000000000 :
b00000000000000000000000000000000 ;
b00000000000000000000000000000000 <
0=
b0000 >
b0000 ?
b00000000000000000000000000000000 @
0A
0B
0C
0D
0E
0F
b00000000000000000000000000000000 G
b00000000000000000000000000000000 H
0I
b0010011 J
b000 K
b0000000 L
1M
0N
0O
0P
0Q
0R
0S
0T
0U
0V
0W
0X
0Y
0Z
0[
0\
0]
0^
0_
0`
0a
0b
0c
0d
0e
0f
0g
0h
0i
0j
0k
0l
0m
0n
0o
0p
0q
0r
0s
0t
0u
0v
0w
0x
0y
0z
0{
1|
b00 }
b00000 ~
b00000 !!
b0000000000000000000000000 "!
0#!
b0000 $!
0%!
0&!
b00000000000000000000000000000000 '!
b00000000000000000000000000000100 (!
0)!
0*!
0+!
0,!
0-!
b0000000000000000000000000000000000000000000000000000000000000000 .!
b0000000000000000000000000000000000000000000000000000000000000000 0!
02!
03!
b00000000000000000000000000000000 4!
b00000000000000000000000000000000 5!
b00000000000000000000000000000000 6!
b00000000000000000000000000000000 7!
08!
09!
b00000 :!
0;!
0<!
0=!
b00000000000000000000000000000000 >!
b00000000000000000000000000000000 ?!
b0000000000000000000000000000000000000000000000000000000000000000 @!
b00 B!
b00000000000000000000000000000000 C!
b00000000000000000000000000000000 D!
b00000000000000000000000000000000 E!
b00000000000000000000000000000000 F!
b000000 G!
b00000000000000000000000000000000 H!
b00 I!
b00000000000000000000000000000000 J!
b00000000000000000000000000000000 K!
b00000000000000000000000000000000 L!
b00000000000000000000000000000000 M!
b000000 N!
b00000000000000000000000000000000 O!
b00 P!
b0000000000000000000000000000000000000000000000000000000000000000 Q!
b00000000000000000000000000000000 S!
b0000000000000000000000000000000000000000000000000000000000000000 T!
b000000 V!
b00 W!
b0000000000000000000000000000000000000000000000000000000000000000 X!
b00000000000000000000000000000000 Z!
b0000000000000000000000000000000000000000000000000000000000000000 [!
b000000 ]!
b00000000000000000000000000000000 ^!
b000 _!
b00000 `!
b00000000000000000000000000000000 a!
b00000000000000000000000000000000 b!
0c!
b00 d!
b00000000000000000000000000000000 e!
b00000000000000000000000000000000 f!
b00000000000000000000000000000000 g!
b00000000000000000000000000000000 h!
b00000000000000000000000000000000 i!
b00000000000000000000000000000000 j!
b00000000000000000000000000000000 k!
b00000000000000000000000000000000 l!
b00000000000000000000000000000000 m!
b00000000000000000000000000000000 n!
b00000000000000000000000000000000 o!
b00000000000000000000000000000000 p!
b00000000000000000000000000000000 q!
b00000000000000000000000000000000 r!
b00000000000000000000000000000000 s!
b00000000000000000000000000000000 t!
b00000000000000000000000000000000 u!
b00000000000000000000000000000000 v!
b00000000000000000000000000000000 w!
b00000000000000000000000000000000 x!
b00000000000000000000000000000000 y!
b00000000000000000000000000000000 z!
b00000000000000000000000000000000 {!
b00000000000000000000000000000000 |!
b00000000000000000000000000000000 }!
b00000000000000000000000000000000 ~!
b00000000000000000000000000000000 !"
b00000000000000000000000000000000 ""
b00000000000000000000000000000000 #"
b00000000000000000000000000000000 $"
b00000000000000000000000000000000 %"
b00000000000000000000000000000000 &"
b00000000000000000000000000000000 '"
b0000 ("
b00000000000000000000000000000000 )"
b0000000000000000 *"
0+"
1,"
b0000000000000000 -"
0."
0/"
b00000000000000000000000000000000 0"
b00000000000000000000000000000000 1"
02"
b00000000000000000000000000000100 3"
b00000000000000000000000000000000 4"
05"
b00000000000000000000000000000000 6"
07"
b00000 8"
b00000000000000000000000000000000 9"
b00000000000000000000000000000000 :"
b0000 ;"
b00000000000000000000000000000000 <"
b00000000000000000000000000000000 ="
0>"
b0000000000000000 ?"
b0000000000000000 @"
b00000000 A"
b00000000 B"
b00000000 C"
0D"
b00000000000000000000000000010000 E"
b00000000000000000000000000000000 F"
b00000000000000000000000000100000 G"
b00 H"
b01 I"
b10 J"
#10
b011111 V!
b011111 ]!
b00000000010000000000000001101111 ^!
b00000000010000000000000001101111 b!
1c!
b00000000010000000000000001101111 e!
1+"
b00000000010000000000000001101111 1"
1>"
#15
0+"
0>"
#20
1+"
1>"
#25
0+"
0>"
#30
1+"
1>"
#35
0+"
0>"
#40
1+"
1>"
#45
0+"
0>"
#50
1+"
1>"
#55
0+"
0>"
#60
1+"
1>"
#65
0+"
0>"
#70
1+"
1>"
#75
0+"
0>"
#80
1+"
1>"
#85
0+"
0>"
#90
1+"
1>"
#95
0+"
0>"
#100
1+"
1>"
#105
0+"
0>"
#110
1+"
1>"
#115
0+"
0>"
#120
1+"
1>"
#125
0+"
0>"
#130
1+"
1>"
#135
0+"
0>"
#140
1+"
1>"
#145
0+"
0>"
#150
1+"
1>"
#155
0+"
0>"
#160
1+"
1>"
#165
0+"
0>"
#170
1+"
1>"
#175
0+"
0>"
#180
1+"
1>"
#185
0+"
0>"
#190
1+"
1>"
#195
0+"
0>"
#200
1+"
1>"
#205
0+"
0>"
#209
0,"
1/"
15"
#210
b00000000010000000000000001101111 (
b11 )
b10 *
b100 +
0.
16
b00000000000000000000000000000100 8
b00000000000000000000000000000100 9
1B
b1101111 J
0M
1T
0|
b00100 !!
b0000000001000000000000000 "!
1#!
0c!
1+"
0/"
12"
05"
17"
b00000000000000000000000000000100 9"
1>"
#215
0+"
0>"
#220
b00000000000000000000000000010011 (
b00 )
b00 *
b000 +
1.
06
b00000000000000000000000000000000 8
b00000000000000000000000000000000 9
0B
b0010011 J
1M
0T
1|
b00000 !!
b0000000000000000000000000 "!
0#!
b00000000000000000000000000000100 '!
b00000000000000000000000000001000 (!
1-!
1+"
1/"
b00000000000000000000000000000100 0"
02"
b00000000000000000000000000001000 3"
b00000000000000000000000000000100 6"
07"
b00000000000000000000000000000000 9"
b00000000000000000000000000000100 :"
1>"
b0000000000000001 ?"
#225
0+"
0>"
#230
b00000000001000000000000110010011 (
16
b00011 7
b00000000000000000000000000000010 8
b00000000000000000000000000000010 9
b00000000000000000000000000000010 ;
b00000000000000000000000000000010 <
1B
b00000000000000000000000000000010 H
b10 }
b00010 !!
b0000000000100000000000011 "!
1#!
0-!
1+"
0/"
b00000000001000000000000110010011 1"
12"
17"
b00011 8"
b00000000000000000000000000000010 9"
1>"
#235
0+"
0>"
#240
b00000000000000000000000000010011 (
06
b00000 7
b00000000000000000000000000000000 8
b00000000000000000000000000000000 9
b00000000000000000000000000000000 ;
b00000000000000000000000000000000 <
0B
b00000000000000000000000000000000 H
b00 }
b00000 !!
b0000000000000000000000000 "!
0#!
b00000000000000000000000000001000 '!
b00000000000000000000000000001100 (!
1-!
b00000000000000000000000000000010 h!
b00000000000000000000000000000010 '"
1+"
1/"
b00000000000000000000000000001000 0"
02"
b00000000000000000000000000001100 3"
b00000000000000000000000000001000 6"
07"
b00000 8"
b00000000000000000000000000000000 9"
b00000000000000000000000000001000 :"
b00000000000000000000000000000010 <"
1>"
b0000000000000010 ?"
#245
0+"
0>"
#250
b00000000000000000000000010010011 (
16
b00001 7
1B
b0000000000000000000000001 "!
1#!
0-!
b00000000000000000000000000000000 '"
1+"
0/"
b00000000000000000000000010010011 1"
12"
17"
b00001 8"
b00000000000000000000000000000000 <"
1>"
#255
0+"
0>"
#260
b00000000000000000000000000010011 (
06
b00000 7
0B
b0000000000000000000000000 "!
0#!
b00000000000000000000000000001100 '!
b00000000000000000000000000010000 (!
1-!
1+"
1/"
b00000000000000000000000000001100 0"
02"
b00000000000000000000000000010000 3"
b00000000000000000000000000001100 6"
07"
b00000 8"
b00000000000000000000000000001100 :"
1>"
b0000000000000011 ?"
#265
0+"
0>"
#270
b00000000000000000000000100010011 (
16
b00010 7
1B
b0000000000000000000000010 "!
1#!
0-!
1+"
0/"
b00000000000000000000000100010011 1"
12"
17"
b00010 8"
1>"
#275
0+"
0>"
#280
b00000000000000000000000000010011 (
06
b00000 7
0B
b0000000000000000000000000 "!
0#!
b00000000000000000000000000010000 '!
b00000000000000000000000000010100 (!
1-!
1+"
1/"
b00000000000000000000000000010000 0"
02"
b00000000000000000000000000010100 3"
b00000000000000000000000000010000 6"
07"
b00000 8"
b00000000000000000000000000010000 :"
1>"
b0000000000000100 ?"
#285
0+"
0>"
#290
b00000000001000001111011001100011 (
b10 )
b010 +
b10011 ,
0.
05
b01100 7
b00000000000000000000000000001100 9
1=
1B
b1100011 J
b111 K
0M
1p
1z
0|
b00001 ~
b00010 !!
b0000000000100000111101100 "!
1#!
0-!
1+"
0/"
b00000000001000001111011001100011 1"
12"
b00000000000000000000000000011100 3"
b01100 8"
1>"
#295
0+"
0>"
#300
b00000000000000000000000000010011 (
b00 )
b000 +
b00000 ,
1.
15
b00000 7
b00000000000000000000000000000000 9
0=
0B
b0010011 J
b000 K
1M
0p
0z
1|
b00000 ~
b00000 !!
b0000000000000000000000000 "!
0#!
b00000000000000000000000000011100 '!
b00000000000000000000000000100000 (!
1-!
1+"
1/"
b00000000000000000000000000011100 0"
02"
b00000000000000000000000000100000 3"
b00000000000000000000000000011100 6"
b00000 8"
b00000000000000000000000000011100 :"
1>"
b0000000000000111 ?"
#305
0+"
0>"
#310
b11111110001000001111111011100011 (
b10 )
b010 +
b10011 ,
0.
05
b11101 7
b11111111111111111111111111111100 9
1=
1B
b1100011 J
b111 K
b1111111 L
0M
1p
1z
0|
b00001 ~
b00010 !!
b1111111000100000111111101 "!
1#!
0-!
1+"
0/"
b11111110001000001111111011100011 1"
12"
b00000000000000000000000000011000 3"
b11101 8"
1>"
#315
0+"
0>"
#320
b00000000000000000000000000010011 (
b00 )
b000 +
b00000 ,
1.
15
b00000 7
b00000000000000000000000000000000 9
0=
0B
b0010011 J
b000 K
b0000000 L
1M
0p
0z
1|
b00000 ~
b00000 !!
b0000000000000000000000000 "!
0#!
b00000000000000000000000000011000 '!
b00000000000000000000000000011100 (!
1-!
1+"
1/"
b00000000000000000000000000011000 0"
02"
b00000000000000000000000000011100 3"
b00000000000000000000000000011000 6"
b00000 8"
b00000000000000000000000000011000 :"
1>"
b0000000000000110 ?"
#325
0+"
0>"
#330
b00000000001100000001011001100011 (
b10 )
b010 +
b01001 ,
0.
b00000000000000000000000000000010 4
05
b01100 7
b00000000000000000000000000001100 9
b00000000000000000000000000000010 ;
1=
b00000000000000000000000000000010 @
1B
b00000000000000000000000000000010 H
b1100011 J
b001 K
0M
1R
1z
0|
b00011 !!
b0000000000110000000101100 "!
1#!
0-!
1+"
0/"
b00000000001100000001011001100011 1"
12"
b00000000000000000000000000100100 3"
b01100 8"
1>"
#335
0+"
0>"
#340
b00000000000000000000000000010011 (
b00 )
b000 +
b00000 ,
1.
b00000000000000000000000000000000 4
15
b00000 7
b00000000000000000000000000000000 9
b00000000000000000000000000000000 ;
0=
b00000000000000000000000000000000 @
0B
b00000000000000000000000000000000 H
b0010011 J
b000 K
1M
0R
0z
1|
b00000 !!
b0000000000000000000000000 "!
0#!
b00000000000000000000000000100100 '!
b00000000000000000000000000101000 (!
1-!
b00000000000000000000000000000010 )"
1+"
1/"
b00000000000000000000000000100100 0"
02"
b00000000000000000000000000101000 3"
b00000000000000000000000000100100 6"
b00000 8"
b00000000000000000000000000100100 :"
b00000000000000000000000000000010 ="
1>"
b0000000000001001 ?"
#345
0+"
0>"
#350
b00000000001100000000000110010011 (
b00000000000000000000000000000010 4
16
b00011 7
b00000000000000000000000000000011 8
b00000000000000000000000000000011 9
b00000000000000000000000000000011 ;
b00000000000000000000000000000011 <
b00000000000000000000000000000010 @
1B
b00000000000000000000000000000011 H
b11 }
b00011 !!
b0000000000110000000000011 "!
1#!
0-!
b00000000000000000000000000000000 )"
1+"
0/"
b00000000001100000000000110010011 1"
12"
17"
b00011 8"
b00000000000000000000000000000011 9"
b00000000000000000000000000000000 ="
1>"
#355
0+"
0>"
#360
b00000000000000000000000000010011 (
b00000000000000000000000000000000 4
06
b00000 7
b00000000000000000000000000000000 8
b00000000000000000000000000000000 9
b00000000000000000000000000000000 ;
b00000000000000000000000000000000 <
b00000000000000000000000000000000 @
0B
b00000000000000000000000000000000 H
b00 }
b00000 !!
b0000000000000000000000000 "!
0#!
b00000000000000000000000000101000 '!
b00000000000000000000000000101100 (!
1-!
b00000000000000000000000000000011 h!
b00000000000000000000000000000011 '"
b00000000000000000000000000000010 )"
1+"
1/"
b00000000000000000000000000101000 0"
02"
b00000000000000000000000000101100 3"
b00000000000000000000000000101000 6"
07"
b00000 8"
b00000000000000000000000000000000 9"
b00000000000000000000000000101000 :"
b00000000000000000000000000000011 <"
b00000000000000000000000000000010 ="
1>"
b0000000000001010 ?"
#365
0+"
0>"
#370
b00000000000100000000000010010011 (
16
b00001 7
b00000000000000000000000000000001 8
b00000000000000000000000000000001 9
b00000000000000000000000000000001 ;
b00000000000000000000000000000001 <
1B
b00000000000000000000000000000001 H
b01 }
b00001 !!
b0000000000010000000000001 "!
1#!
0-!
b00000000000000000000000000000000 '"
b00000000000000000000000000000000 )"
1+"
0/"
b00000000000100000000000010010011 1"
12"
17"
b00001 8"
b00000000000000000000000000000001 9"
b00000000000000000000000000000000 <"
b00000000000000000000000000000000 ="
1>"
#375
0+"
0>"
#380
b00000000000000000000000000010011 (
06
b00000 7
b00000000000000000000000000000000 8
b00000000000000000000000000000000 9
b00000000000000000000000000000000 ;
b00000000000000000000000000000000 <
0B
b00000000000000000000000000000000 H
b00 }
b00000 !!
b0000000000000000000000000 "!
0#!
b00000000000000000000000000101100 '!
b00000000000000000000000000110000 (!
1-!
b00000000000000000000000000000001 f!
b00000000000000000000000000000001 '"
1+"
1/"
b00000000000000000000000000101100 0"
02"
b00000000000000000000000000110000 3"
b00000000000000000000000000101100 6"
07"
b00000 8"
b00000000000000000000000000000000 9"
b00000000000000000000000000101100 :"
b00000000000000000000000000000001 <"
1>"
b0000000000001011 ?"
#385
0+"
0>"
